Introduction to R - Part 7
…
<img src="Part7_slides_files/figure-html/unnamed-chunk-22-1.png" width="300px" height="300px" />

---

1 - Which specie is the heaviest?  

```r
starwars %>%
  group_by(species) %>%
  mutate(med_mass = median(mass, na.rm = TRUE)) %>%
  top_n(1, med_mass)
```

```
## # A tibble: 81 x 14
## # Groups:   species [32]
##    name  height  mass hair_color skin_color eye_color birth_year gender
##    <chr>  <int> <dbl> <chr>      <chr>      <chr>          <dbl> <chr> 
##  1 Luke…    172    77 blond      fair       blue            19   male  
##  2 C-3PO    167    75 <NA>       gold       yellow         112   <NA>  
##  3 R2-D2     96    32 <NA>       white, bl… red             33   <NA>  
##  4 Dart…    202   136 none       white      yellow          41.9 male  
##  5 Leia…    150    49 brown      light      brown           19   female
##  6 Owen…    178   120 brown, gr… light      blue            52   male  
##  7 Beru…    165    75 brown      light      blue            47   female
##  8 R5-D4     97    32 <NA>       white, red red             NA   <NA>  
##  9 Bigg…    183    84 black      light      brown           24   male  
## 10 Obi-…    182    77 auburn, w… fair       blue-gray       57   male  
## # … with 71 more rows, and 6 more variables: homeworld <chr>,
## #   species <chr>, films <list>, vehicles <list>, starships <list>,
## #   med_mass <dbl>
```
…
Who has appeared in the least movies? 

```r
starwars %>%
  unnest(films) %>%
  group_by(name) %>%
  summarise(n_films = n()) %>%
  ungroup() %>%
  top_n(-1, n_films)
```

```
## # A tibble: 46 x 2
##    name              n_films
##    <chr>               <int>
##  1 Arvel Crynyd            1
##  2 Barriss Offee           1
##  3 BB8                     1
##  4 Ben Quadinaros          1
##  5 Bib Fortuna             1
##  6 Biggs Darklighter       1
##  7 Bossk                   1
##  8 Captain Phasma          1
##  9 Cliegg Lars             1
## 10 Cordé                   1
## # … with 36 more rows
```

---

6 - List the most represented species from each homeworld.  

```r
starwars %>%
  group_by(homeworld, species) %>%
  summarise(n_beings = n()) %>%
  group_by(species) %>%
  top_n(1, n_beings)
```

```
## # A tibble: 41 x 3
## # Groups:   species [38]
##    homeworld      species        n_beings
##    <chr>          <chr>             <int>
##  1 <NA>           <NA>                  2
##  2 <NA>           Droid                 2
##  3 <NA>           Yoda's species        1
##  4 Aleen Minor    Aleena                1
##  5 Cato Neimoidia Neimodian             1
##  6 Cerea          Cerean                1
##  7 Champala       Chagrian              1
##  8 Coruscant      Tholothian            1
##  9 Dathomir       Zabrak                1
## 10 Dorin          Kel Dor               1
## # … with 31 more rows
```
…
